C:\Development\workspaces\workspacePortal\demo\demo-web\src\de\hinderkott\demo\HelloWorldCDIBean.java
C:\Development\workspaces\workspacePortal\demo\demo-web\src\de\hinderkott\demo\User.java
C:\Development\workspaces\workspacePortal\demo\demo-web\src\de\hinderkott\demo\UserSessionManager.java
